%YAML 1.1
%TAG !u! tag:unity3d.com,2011:
--- !u!1045 &1
EditorBuildSettings:
  m_ObjectHideFlags: 0
  serializedVersion: 2
  m_Scenes:
  - enabled: 0
    path: Assets/Scenes/SampleSceneAction1.unity
    guid: 99c9720ab356a0642a771bea13969a05
  - enabled: 0
    path: Assets/Scenes/MainMenu.unity
    guid: 427bf9a6b35657843864e104cac8cb6b
  - enabled: 1
    path: Assets/Scenes/ActionScene.unity
    guid: 81e052d8b90e2324b84d1edc57b04bfd
  m_configObjects: {}
