%YAML 1.1
%TAG !u! tag:unity3d.com,2011:
--- !u!29 &1
OcclusionCullingSettings:
  m_ObjectHideFlags: 0
  serializedVersion: 2
  m_OcclusionBakeSettings:
    smallestOccluder: 5
    smallestHole: 0.25
    backfaceThreshold: 100
  m_SceneGUID: 00000000000000000000000000000000
  m_OcclusionCullingData: {fileID: 0}
--- !u!104 &2
RenderSettings:
  m_ObjectHideFlags: 0
  serializedVersion: 9
  m_Fog: 0
  m_FogColor: {r: 0.5, g: 0.5, b: 0.5, a: 1}
  m_FogMode: 3
  m_FogDensity: 0.01
  m_LinearFogStart: 0
  m_LinearFogEnd: 300
  m_AmbientSkyColor: {r: 0.43320578, g: 0.47433847, b: 0.5566038, a: 1}
  m_AmbientEquatorColor: {r: 0.114, g: 0.125, b: 0.133, a: 1}
  m_AmbientGroundColor: {r: 0.047, g: 0.043, b: 0.035, a: 1}
  m_AmbientIntensity: 1
  m_AmbientMode: 3
  m_SubtractiveShadowColor: {r: 0.42, g: 0.478, b: 0.627, a: 1}
  m_SkyboxMaterial: {fileID: 10304, guid: 0000000000000000f000000000000000, type: 0}
  m_HaloStrength: 0.5
  m_FlareStrength: 1
  m_FlareFadeSpeed: 3
  m_HaloTexture: {fileID: 0}
  m_SpotCookie: {fileID: 10001, guid: 0000000000000000e000000000000000, type: 0}
  m_DefaultReflectionMode: 0
  m_DefaultReflectionResolution: 128
  m_ReflectionBounces: 1
  m_ReflectionIntensity: 1
  m_CustomReflection: {fileID: 0}
  m_Sun: {fileID: 0}
  m_IndirectSpecularColor: {r: 0, g: 0, b: 0, a: 1}
  m_UseRadianceAmbientProbe: 0
--- !u!157 &3
LightmapSettings:
  m_ObjectHideFlags: 0
  serializedVersion: 11
  m_GIWorkflowMode: 1
  m_GISettings:
    serializedVersion: 2
    m_BounceScale: 1
    m_IndirectOutputScale: 1
    m_AlbedoBoost: 1
    m_TemporalCoherenceThreshold: 1
    m_EnvironmentLightingMode: 0
    m_EnableBakedLightmaps: 1
    m_EnableRealtimeLightmaps: 0
  m_LightmapEditorSettings:
    serializedVersion: 10
    m_Resolution: 2
    m_BakeResolution: 10
    m_AtlasSize: 512
    m_AO: 0
    m_AOMaxDistance: 1
    m_CompAOExponent: 1
    m_CompAOExponentDirect: 0
    m_Padding: 2
    m_LightmapParameters: {fileID: 0}
    m_LightmapsBakeMode: 1
    m_TextureCompression: 1
    m_FinalGather: 0
    m_FinalGatherFiltering: 1
    m_FinalGatherRayCount: 256
    m_ReflectionCompression: 2
    m_MixedBakeMode: 2
    m_BakeBackend: 1
    m_PVRSampling: 1
    m_PVRDirectSampleCount: 32
    m_PVRSampleCount: 256
    m_PVRBounces: 2
    m_PVRFilterTypeDirect: 0
    m_PVRFilterTypeIndirect: 0
    m_PVRFilterTypeAO: 0
    m_PVRFilteringMode: 1
    m_PVRCulling: 1
    m_PVRFilteringGaussRadiusDirect: 1
    m_PVRFilteringGaussRadiusIndirect: 5
    m_PVRFilteringGaussRadiusAO: 2
    m_PVRFilteringAtrousPositionSigmaDirect: 0.5
    m_PVRFilteringAtrousPositionSigmaIndirect: 2
    m_PVRFilteringAtrousPositionSigmaAO: 1
    m_ShowResolutionOverlay: 1
  m_LightingDataAsset: {fileID: 0}
  m_UseShadowmask: 1
--- !u!196 &4
NavMeshSettings:
  serializedVersion: 2
  m_ObjectHideFlags: 0
  m_BuildSettings:
    serializedVersion: 2
    agentTypeID: 0
    agentRadius: 0.5
    agentHeight: 2
    agentSlope: 45
    agentClimb: 0.4
    ledgeDropHeight: 0
    maxJumpAcrossDistance: 0
    minRegionArea: 2
    manualCellSize: 0
    cellSize: 0.16666667
    manualTileSize: 0
    tileSize: 256
    accuratePlacement: 0
    debug:
      m_Flags: 0
  m_NavMeshData: {fileID: 0}
--- !u!1 &118774898
GameObject:
  m_ObjectHideFlags: 0
  m_PrefabParentObject: {fileID: 0}
  m_PrefabInternal: {fileID: 0}
  serializedVersion: 5
  m_Component:
  - component: {fileID: 118774900}
  - component: {fileID: 118774899}
  m_Layer: 0
  m_Name: EnemySpawner1 (1)
  m_TagString: Untagged
  m_Icon: {fileID: 0}
  m_NavMeshLayer: 0
  m_StaticEditorFlags: 0
  m_IsActive: 1
--- !u!114 &118774899
MonoBehaviour:
  m_ObjectHideFlags: 0
  m_PrefabParentObject: {fileID: 0}
  m_PrefabInternal: {fileID: 0}
  m_GameObject: {fileID: 118774898}
  m_Enabled: 1
  m_EditorHideFlags: 0
  m_Script: {fileID: 11500000, guid: 82a13de66926be64da365f937a0ec45d, type: 3}
  m_Name: 
  m_EditorClassIdentifier: 
  Objects:
  - {fileID: 1199205380818642, guid: eef940087617f0140a60f042fb36ba3f, type: 2}
  TimeSpawn: 3
  MaxObject: 5
  PlayerTag: Player
  PlayerEnter: 0
  OnActive: 0
  spawnOnStart: 1
--- !u!4 &118774900
Transform:
  m_ObjectHideFlags: 0
  m_PrefabParentObject: {fileID: 0}
  m_PrefabInternal: {fileID: 0}
  m_GameObject: {fileID: 118774898}
  m_LocalRotation: {x: 0, y: 0, z: 0, w: 1}
  m_LocalPosition: {x: 23.8, y: 18.6, z: 18.9}
  m_LocalScale: {x: 10, y: 2, z: 10}
  m_Children: []
  m_Father: {fileID: 0}
  m_RootOrder: 3
  m_LocalEulerAnglesHint: {x: 0, y: 0, z: 0}
--- !u!1 &497567098
GameObject:
  m_ObjectHideFlags: 0
  m_PrefabParentObject: {fileID: 1303353474355514, guid: 85b3b41ac9216ec4c8b5c4e84dc09f04,
    type: 2}
  m_PrefabInternal: {fileID: 0}
  serializedVersion: 5
  m_Component:
  - component: {fileID: 497567106}
  - component: {fileID: 497567101}
  - component: {fileID: 497567105}
  - component: {fileID: 497567104}
  - component: {fileID: 497567103}
  - component: {fileID: 497567102}
  - component: {fileID: 497567100}
  - component: {fileID: 497567099}
  m_Layer: 0
  m_Name: PlayerCharacter
  m_TagString: Player
  m_Icon: {fileID: 0}
  m_NavMeshLayer: 0
  m_StaticEditorFlags: 0
  m_IsActive: 0
--- !u!114 &497567099
MonoBehaviour:
  m_ObjectHideFlags: 0
  m_PrefabParentObject: {fileID: 114052203289498636, guid: 85b3b41ac9216ec4c8b5c4e84dc09f04,
    type: 2}
  m_PrefabInternal: {fileID: 0}
  m_GameObject: {fileID: 497567098}
  m_Enabled: 1
  m_EditorHideFlags: 0
  m_Script: {fileID: 11500000, guid: e897787f7f2a69041ae28b1b596d5c91, type: 3}
  m_Name: 
  m_EditorClassIdentifier: 
  FPSmotor: {fileID: 497567100}
--- !u!114 &497567100
MonoBehaviour:
  m_ObjectHideFlags: 0
  m_PrefabParentObject: {fileID: 114340258146384284, guid: 85b3b41ac9216ec4c8b5c4e84dc09f04,
    type: 2}
  m_PrefabInternal: {fileID: 0}
  m_GameObject: {fileID: 497567098}
  m_Enabled: 1
  m_EditorHideFlags: 0
  m_Script: {fileID: 11500000, guid: aa3ee0900f9cb594c9b65d85ec1b48fe, type: 3}
  m_Name: 
  m_EditorClassIdentifier: 
  cameraPrefab: {fileID: 159700, guid: a4f488187a0e86b42beb9a40badf0a20, type: 2}
  character: {fileID: 0}
  motor: {fileID: 0}
  inputDirection: {x: 0, y: 0, z: 0}
  mouseDirection: {x: 0, y: 0}
  TPSViewPart: {fileID: 0}
  zooming: 0
--- !u!114 &497567101
MonoBehaviour:
  m_ObjectHideFlags: 0
  m_PrefabParentObject: {fileID: 114048429589843698, guid: 85b3b41ac9216ec4c8b5c4e84dc09f04,
    type: 2}
  m_PrefabInternal: {fileID: 0}
  m_GameObject: {fileID: 497567098}
  m_Enabled: 1
  m_EditorHideFlags: 0
  m_Script: {fileID: 11500000, guid: 7daece930ea157c42a18ae562e0102e2, type: 3}
  m_Name: 
  m_EditorClassIdentifier: 
  HP: 100
  HPmax: 100
  Armor: 0
  Armormax: 100
  DeadReplacement: {fileID: 0}
  DeadReplaceLifeTime: 180
  isAlive: 1
  SoundPain: []
  Audiosource: {fileID: 0}
  Team: 
  ID: 
  LastHitByID: 
  CharacterKey: 
  animator: {fileID: 0}
  rayActive: {fileID: 0}
  controller: {fileID: 0}
  Motor: {fileID: 0}
  Sprint: 0
  MoveSpeed: 0.7
  MoveSpeedMax: 5
  TurnSpeed: 5
  PrimaryWeaponDistance: 1
  PrimaryItemType: 0
  AttackType: 0
  Damage: 2
  DamageLength: 1
  Penetrate: 1
  DamageSound: []
  SoundIdle: []
  spdMovAtkMult: 1
--- !u!82 &497567102
AudioSource:
  m_ObjectHideFlags: 0
  m_PrefabParentObject: {fileID: 82198975783876596, guid: 85b3b41ac9216ec4c8b5c4e84dc09f04,
    type: 2}
  m_PrefabInternal: {fileID: 0}
  m_GameObject: {fileID: 497567098}
  m_Enabled: 1
  serializedVersion: 4
  OutputAudioMixerGroup: {fileID: 0}
  m_audioClip: {fileID: 0}
  m_PlayOnAwake: 1
  m_Volume: 1
  m_Pitch: 1
  Loop: 0
  Mute: 0
  Spatialize: 0
  SpatializePostEffects: 0
  Priority: 128
  DopplerLevel: 1
  MinDistance: 1
  MaxDistance: 500
  Pan2D: 0
  rolloffMode: 0
  BypassEffects: 0
  BypassListenerEffects: 0
  BypassReverbZones: 0
  rolloffCustomCurve:
    serializedVersion: 2
    m_Curve:
    - serializedVersion: 3
      time: 0
      value: 1
      inSlope: 0
      outSlope: 0
      tangentMode: 0
      weightedMode: 0
      inWeight: 0.33333334
      outWeight: 0.33333334
    - serializedVersion: 3
      time: 1
      value: 0
      inSlope: 0
      outSlope: 0
      tangentMode: 0
      weightedMode: 0
      inWeight: 0.33333334
      outWeight: 0.33333334
    m_PreInfinity: 2
    m_PostInfinity: 2
    m_RotationOrder: 4
  panLevelCustomCurve:
    serializedVersion: 2
    m_Curve:
    - serializedVersion: 3
      time: 0
      value: 0
      inSlope: 0
      outSlope: 0
      tangentMode: 0
      weightedMode: 0
      inWeight: 0.33333334
      outWeight: 0.33333334
    m_PreInfinity: 2
    m_PostInfinity: 2
    m_RotationOrder: 4
  spreadCustomCurve:
    serializedVersion: 2
    m_Curve:
    - serializedVersion: 3
      time: 0
      value: 0
      inSlope: 0
      outSlope: 0
      tangentMode: 0
      weightedMode: 0
      inWeight: 0.33333334
      outWeight: 0.33333334
    m_PreInfinity: 2
    m_PostInfinity: 2
    m_RotationOrder: 4
  reverbZoneMixCustomCurve:
    serializedVersion: 2
    m_Curve:
    - serializedVersion: 3
      time: 0
      value: 1
      inSlope: 0
      outSlope: 0
      tangentMode: 0
      weightedMode: 0
      inWeight: 0.33333334
      outWeight: 0.33333334
    m_PreInfinity: 2
    m_PostInfinity: 2
    m_RotationOrder: 4
--- !u!114 &497567103
MonoBehaviour:
  m_ObjectHideFlags: 0
  m_PrefabParentObject: {fileID: 114989742825001202, guid: 85b3b41ac9216ec4c8b5c4e84dc09f04,
    type: 2}
  m_PrefabInternal: {fileID: 0}
  m_GameObject: {fileID: 497567098}
  m_Enabled: 1
  m_EditorHideFlags: 0
  m_Script: {fileID: 11500000, guid: f790ec182c2ecc34da37e49c9540d29f, type: 3}
  m_Name: 
  m_EditorClassIdentifier: 
  canControl: 1
  boostMults: 1
  maxForwardSpeed: 5
  maxSidewaysSpeed: 5
  maxBackwardsSpeed: 5
  VelocityDirection: {x: 0, y: 0, z: 0}
  slopeSpeedMultiplier:
    serializedVersion: 2
    m_Curve:
    - serializedVersion: 3
      time: -90
      value: 1
      inSlope: 0
      outSlope: 0
      tangentMode: 0
      weightedMode: 0
      inWeight: 0
      outWeight: 0
    - serializedVersion: 3
      time: 0
      value: 1
      inSlope: 0
      outSlope: 0
      tangentMode: 0
      weightedMode: 0
      inWeight: 0
      outWeight: 0
    - serializedVersion: 3
      time: 90
      value: 0
      inSlope: 0
      outSlope: 0
      tangentMode: 0
      weightedMode: 0
      inWeight: 0
      outWeight: 0
    m_PreInfinity: 2
    m_PostInfinity: 2
    m_RotationOrder: 4
  maxGroundAcceleration: 30
  maxAirAcceleration: 20
  gravity: 10
  maxFallSpeed: 20
  ID: 
  OjectVelocity: {x: 0, y: 0, z: 0}
  controller: {fileID: 497567104}
  IsActive: 1
--- !u!143 &497567104
CharacterController:
  m_ObjectHideFlags: 0
  m_PrefabParentObject: {fileID: 143858019738651784, guid: 85b3b41ac9216ec4c8b5c4e84dc09f04,
    type: 2}
  m_PrefabInternal: {fileID: 0}
  m_GameObject: {fileID: 497567098}
  m_Material: {fileID: 0}
  m_IsTrigger: 0
  m_Enabled: 1
  serializedVersion: 2
  m_Height: 1.5
  m_Radius: 0.3
  m_SlopeLimit: 45
  m_StepOffset: 0.3
  m_SkinWidth: 0.08
  m_MinMoveDistance: 0.001
  m_Center: {x: 0, y: 0, z: 0}
--- !u!114 &497567105
MonoBehaviour:
  m_ObjectHideFlags: 0
  m_PrefabParentObject: {fileID: 114696616778528908, guid: 85b3b41ac9216ec4c8b5c4e84dc09f04,
    type: 2}
  m_PrefabInternal: {fileID: 0}
  m_GameObject: {fileID: 497567098}
  m_Enabled: 1
  m_EditorHideFlags: 0
  m_Script: {fileID: 11500000, guid: 5893b43a4fe2c7248885df9b33b007da, type: 3}
  m_Name: 
  m_EditorClassIdentifier: 
  IgnoreTag:
  - Player
  DestroyerTag:
  - Scene
  raySize: 10
--- !u!4 &497567106
Transform:
  m_ObjectHideFlags: 0
  m_PrefabParentObject: {fileID: 4029355745187230, guid: 85b3b41ac9216ec4c8b5c4e84dc09f04,
    type: 2}
  m_PrefabInternal: {fileID: 0}
  m_GameObject: {fileID: 497567098}
  m_LocalRotation: {x: 0, y: 0, z: 0, w: 1}
  m_LocalPosition: {x: 5.76, y: 2.85, z: 0.46}
  m_LocalScale: {x: 1, y: 1, z: 1}
  m_Children:
  - {fileID: 1434623626}
  - {fileID: 1393954221}
  - {fileID: 1690721076}
  m_Father: {fileID: 0}
  m_RootOrder: 1
  m_LocalEulerAnglesHint: {x: 0, y: 0, z: 0}
--- !u!224 &588471141 stripped
RectTransform:
  m_PrefabParentObject: {fileID: 224428694939008564, guid: c3674c76e02da99469653feecc1da439,
    type: 2}
  m_PrefabInternal: {fileID: 762287557}
--- !u!1001 &762287557
Prefab:
  m_ObjectHideFlags: 0
  serializedVersion: 2
  m_Modification:
    m_TransformParent: {fileID: 1977531042}
    m_Modifications:
    - target: {fileID: 224428694939008564, guid: c3674c76e02da99469653feecc1da439,
        type: 2}
      propertyPath: m_LocalPosition.x
      value: 0
      objectReference: {fileID: 0}
    - target: {fileID: 224428694939008564, guid: c3674c76e02da99469653feecc1da439,
        type: 2}
      propertyPath: m_LocalPosition.y
      value: 0
      objectReference: {fileID: 0}
    - target: {fileID: 224428694939008564, guid: c3674c76e02da99469653feecc1da439,
        type: 2}
      propertyPath: m_LocalPosition.z
      value: 0
      objectReference: {fileID: 0}
    - target: {fileID: 224428694939008564, guid: c3674c76e02da99469653feecc1da439,
        type: 2}
      propertyPath: m_LocalRotation.x
      value: 0
      objectReference: {fileID: 0}
    - target: {fileID: 224428694939008564, guid: c3674c76e02da99469653feecc1da439,
        type: 2}
      propertyPath: m_LocalRotation.y
      value: 0
      objectReference: {fileID: 0}
    - target: {fileID: 224428694939008564, guid: c3674c76e02da99469653feecc1da439,
        type: 2}
      propertyPath: m_LocalRotation.z
      value: 0
      objectReference: {fileID: 0}
    - target: {fileID: 224428694939008564, guid: c3674c76e02da99469653feecc1da439,
        type: 2}
      propertyPath: m_LocalRotation.w
      value: 1
      objectReference: {fileID: 0}
    - target: {fileID: 224428694939008564, guid: c3674c76e02da99469653feecc1da439,
        type: 2}
      propertyPath: m_RootOrder
      value: 0
      objectReference: {fileID: 0}
    - target: {fileID: 224428694939008564, guid: c3674c76e02da99469653feecc1da439,
        type: 2}
      propertyPath: m_AnchoredPosition.x
      value: 0
      objectReference: {fileID: 0}
    - target: {fileID: 224428694939008564, guid: c3674c76e02da99469653feecc1da439,
        type: 2}
      propertyPath: m_AnchoredPosition.y
      value: 0
      objectReference: {fileID: 0}
    - target: {fileID: 224428694939008564, guid: c3674c76e02da99469653feecc1da439,
        type: 2}
      propertyPath: m_SizeDelta.x
      value: 0
      objectReference: {fileID: 0}
    - target: {fileID: 224428694939008564, guid: c3674c76e02da99469653feecc1da439,
        type: 2}
      propertyPath: m_SizeDelta.y
      value: 0
      objectReference: {fileID: 0}
    - target: {fileID: 224428694939008564, guid: c3674c76e02da99469653feecc1da439,
        type: 2}
      propertyPath: m_AnchorMin.x
      value: 0
      objectReference: {fileID: 0}
    - target: {fileID: 224428694939008564, guid: c3674c76e02da99469653feecc1da439,
        type: 2}
      propertyPath: m_AnchorMin.y
      value: 0
      objectReference: {fileID: 0}
    - target: {fileID: 224428694939008564, guid: c3674c76e02da99469653feecc1da439,
        type: 2}
      propertyPath: m_AnchorMax.x
      value: 1
      objectReference: {fileID: 0}
    - target: {fileID: 224428694939008564, guid: c3674c76e02da99469653feecc1da439,
        type: 2}
      propertyPath: m_AnchorMax.y
      value: 1
      objectReference: {fileID: 0}
    - target: {fileID: 224428694939008564, guid: c3674c76e02da99469653feecc1da439,
        type: 2}
      propertyPath: m_Pivot.x
      value: 0.5
      objectReference: {fileID: 0}
    - target: {fileID: 224428694939008564, guid: c3674c76e02da99469653feecc1da439,
        type: 2}
      propertyPath: m_Pivot.y
      value: 0.5
      objectReference: {fileID: 0}
    - target: {fileID: 114799741156101586, guid: c3674c76e02da99469653feecc1da439,
        type: 2}
      propertyPath: playerSpawner
      value: 
      objectReference: {fileID: 924892605}
    m_RemovedComponents: []
  m_ParentPrefab: {fileID: 100100000, guid: c3674c76e02da99469653feecc1da439, type: 2}
  m_IsPrefabParent: 0
--- !u!1001 &774397521
Prefab:
  m_ObjectHideFlags: 0
  serializedVersion: 2
  m_Modification:
    m_TransformParent: {fileID: 0}
    m_Modifications:
    - target: {fileID: 4563538110108596, guid: 134f5132b6739be468dd86b4175731d9, type: 2}
      propertyPath: m_LocalPosition.x
      value: 18.950195
      objectReference: {fileID: 0}
    - target: {fileID: 4563538110108596, guid: 134f5132b6739be468dd86b4175731d9, type: 2}
      propertyPath: m_LocalPosition.y
      value: 7.5234375
      objectReference: {fileID: 0}
    - target: {fileID: 4563538110108596, guid: 134f5132b6739be468dd86b4175731d9, type: 2}
      propertyPath: m_LocalPosition.z
      value: 17.166016
      objectReference: {fileID: 0}
    - target: {fileID: 4563538110108596, guid: 134f5132b6739be468dd86b4175731d9, type: 2}
      propertyPath: m_LocalRotation.x
      value: 0
      objectReference: {fileID: 0}
    - target: {fileID: 4563538110108596, guid: 134f5132b6739be468dd86b4175731d9, type: 2}
      propertyPath: m_LocalRotation.y
      value: 0
      objectReference: {fileID: 0}
    - target: {fileID: 4563538110108596, guid: 134f5132b6739be468dd86b4175731d9, type: 2}
      propertyPath: m_LocalRotation.z
      value: 0
      objectReference: {fileID: 0}
    - target: {fileID: 4563538110108596, guid: 134f5132b6739be468dd86b4175731d9, type: 2}
      propertyPath: m_LocalRotation.w
      value: 1
      objectReference: {fileID: 0}
    - target: {fileID: 4563538110108596, guid: 134f5132b6739be468dd86b4175731d9, type: 2}
      propertyPath: m_RootOrder
      value: 5
      objectReference: {fileID: 0}
    - target: {fileID: 114280547413467520, guid: 134f5132b6739be468dd86b4175731d9,
        type: 2}
      propertyPath: scoreText
      value: 
      objectReference: {fileID: 1640573644}
    - target: {fileID: 114280547413467520, guid: 134f5132b6739be468dd86b4175731d9,
        type: 2}
      propertyPath: scoreMaxText
      value: 
      objectReference: {fileID: 1157514128}
    m_RemovedComponents: []
  m_ParentPrefab: {fileID: 100100000, guid: 134f5132b6739be468dd86b4175731d9, type: 2}
  m_IsPrefabParent: 0
--- !u!1001 &895334523
Prefab:
  m_ObjectHideFlags: 0
  serializedVersion: 2
  m_Modification:
    m_TransformParent: {fileID: 0}
    m_Modifications:
    - target: {fileID: 4148329180187074, guid: 944274a28e94ee649a1540842e3361ad, type: 2}
      propertyPath: m_LocalPosition.x
      value: 155.54994
      objectReference: {fileID: 0}
    - target: {fileID: 4148329180187074, guid: 944274a28e94ee649a1540842e3361ad, type: 2}
      propertyPath: m_LocalPosition.y
      value: 672.5
      objectReference: {fileID: 0}
    - target: {fileID: 4148329180187074, guid: 944274a28e94ee649a1540842e3361ad, type: 2}
      propertyPath: m_LocalPosition.z
      value: 0
      objectReference: {fileID: 0}
    - target: {fileID: 4148329180187074, guid: 944274a28e94ee649a1540842e3361ad, type: 2}
      propertyPath: m_LocalRotation.x
      value: 0
      objectReference: {fileID: 0}
    - target: {fileID: 4148329180187074, guid: 944274a28e94ee649a1540842e3361ad, type: 2}
      propertyPath: m_LocalRotation.y
      value: 0
      objectReference: {fileID: 0}
    - target: {fileID: 4148329180187074, guid: 944274a28e94ee649a1540842e3361ad, type: 2}
      propertyPath: m_LocalRotation.z
      value: 0
      objectReference: {fileID: 0}
    - target: {fileID: 4148329180187074, guid: 944274a28e94ee649a1540842e3361ad, type: 2}
      propertyPath: m_LocalRotation.w
      value: 1
      objectReference: {fileID: 0}
    - target: {fileID: 4148329180187074, guid: 944274a28e94ee649a1540842e3361ad, type: 2}
      propertyPath: m_RootOrder
      value: 6
      objectReference: {fileID: 0}
    m_RemovedComponents: []
  m_ParentPrefab: {fileID: 100100000, guid: 944274a28e94ee649a1540842e3361ad, type: 2}
  m_IsPrefabParent: 0
--- !u!1001 &921508080
Prefab:
  m_ObjectHideFlags: 0
  serializedVersion: 2
  m_Modification:
    m_TransformParent: {fileID: 0}
    m_Modifications:
    - target: {fileID: 4602651184091136, guid: e8d4b56036400654ca853ce002203e76, type: 2}
      propertyPath: m_LocalPosition.x
      value: 5.7745004
      objectReference: {fileID: 0}
    - target: {fileID: 4602651184091136, guid: e8d4b56036400654ca853ce002203e76, type: 2}
      propertyPath: m_LocalPosition.y
      value: 2.85
      objectReference: {fileID: 0}
    - target: {fileID: 4602651184091136, guid: e8d4b56036400654ca853ce002203e76, type: 2}
      propertyPath: m_LocalPosition.z
      value: 0.81450003
      objectReference: {fileID: 0}
    - target: {fileID: 4602651184091136, guid: e8d4b56036400654ca853ce002203e76, type: 2}
      propertyPath: m_LocalRotation.x
      value: 0
      objectReference: {fileID: 0}
    - target: {fileID: 4602651184091136, guid: e8d4b56036400654ca853ce002203e76, type: 2}
      propertyPath: m_LocalRotation.y
      value: 0
      objectReference: {fileID: 0}
    - target: {fileID: 4602651184091136, guid: e8d4b56036400654ca853ce002203e76, type: 2}
      propertyPath: m_LocalRotation.z
      value: 0
      objectReference: {fileID: 0}
    - target: {fileID: 4602651184091136, guid: e8d4b56036400654ca853ce002203e76, type: 2}
      propertyPath: m_LocalRotation.w
      value: 1
      objectReference: {fileID: 0}
    - target: {fileID: 4602651184091136, guid: e8d4b56036400654ca853ce002203e76, type: 2}
      propertyPath: m_RootOrder
      value: 7
      objectReference: {fileID: 0}
    m_RemovedComponents: []
  m_ParentPrefab: {fileID: 100100000, guid: e8d4b56036400654ca853ce002203e76, type: 2}
  m_IsPrefabParent: 0
--- !u!114 &924892605 stripped
MonoBehaviour:
  m_PrefabParentObject: {fileID: 114927282595458306, guid: 175b455f3f677ab42aefd6e95bc85fbb,
    type: 2}
  m_PrefabInternal: {fileID: 1528521603}
  m_Script: {fileID: 11500000, guid: d026644b5b86f0f438982380a0b012d9, type: 3}
--- !u!114 &1157514128 stripped
MonoBehaviour:
  m_PrefabParentObject: {fileID: 114128690297006078, guid: c3674c76e02da99469653feecc1da439,
    type: 2}
  m_PrefabInternal: {fileID: 762287557}
  m_Script: {fileID: 708705254, guid: f70555f144d8491a825f0804e09c671c, type: 3}
--- !u!1 &1393954220
GameObject:
  m_ObjectHideFlags: 0
  m_PrefabParentObject: {fileID: 1454209992840672, guid: 85b3b41ac9216ec4c8b5c4e84dc09f04,
    type: 2}
  m_PrefabInternal: {fileID: 0}
  serializedVersion: 5
  m_Component:
  - component: {fileID: 1393954221}
  - component: {fileID: 1393954224}
  - component: {fileID: 1393954223}
  - component: {fileID: 1393954222}
  - component: {fileID: 1393954225}
  m_Layer: 0
  m_Name: art
  m_TagString: Untagged
  m_Icon: {fileID: 0}
  m_NavMeshLayer: 0
  m_StaticEditorFlags: 0
  m_IsActive: 1
--- !u!4 &1393954221
Transform:
  m_ObjectHideFlags: 0
  m_PrefabParentObject: {fileID: 4223482384062968, guid: 85b3b41ac9216ec4c8b5c4e84dc09f04,
    type: 2}
  m_PrefabInternal: {fileID: 0}
  m_GameObject: {fileID: 1393954220}
  m_LocalRotation: {x: 0, y: 0, z: 0, w: 1}
  m_LocalPosition: {x: 0, y: 0, z: 0}
  m_LocalScale: {x: 0.5, y: 0.7, z: 0.5}
  m_Children: []
  m_Father: {fileID: 497567106}
  m_RootOrder: 1
  m_LocalEulerAnglesHint: {x: 0, y: 0, z: 0}
--- !u!136 &1393954222
CapsuleCollider:
  m_ObjectHideFlags: 0
  m_PrefabParentObject: {fileID: 136166066343015064, guid: 85b3b41ac9216ec4c8b5c4e84dc09f04,
    type: 2}
  m_PrefabInternal: {fileID: 0}
  m_GameObject: {fileID: 1393954220}
  m_Material: {fileID: 0}
  m_IsTrigger: 1
  m_Enabled: 1
  m_Radius: 0.6
  m_Height: 1.84
  m_Direction: 1
  m_Center: {x: 0, y: 0, z: 0}
--- !u!23 &1393954223
MeshRenderer:
  m_ObjectHideFlags: 0
  m_PrefabParentObject: {fileID: 23707554656555564, guid: 85b3b41ac9216ec4c8b5c4e84dc09f04,
    type: 2}
  m_PrefabInternal: {fileID: 0}
  m_GameObject: {fileID: 1393954220}
  m_Enabled: 1
  m_CastShadows: 1
  m_ReceiveShadows: 1
  m_DynamicOccludee: 1
  m_MotionVectors: 1
  m_LightProbeUsage: 1
  m_ReflectionProbeUsage: 1
  m_RenderingLayerMask: 4294967295
  m_Materials:
  - {fileID: 2100000, guid: a8060c0959442ec41840e1eb0d1568f5, type: 2}
  m_StaticBatchInfo:
    firstSubMesh: 0
    subMeshCount: 0
  m_StaticBatchRoot: {fileID: 0}
  m_ProbeAnchor: {fileID: 0}
  m_LightProbeVolumeOverride: {fileID: 0}
  m_ScaleInLightmap: 1
  m_PreserveUVs: 0
  m_IgnoreNormalsForChartDetection: 0
  m_ImportantGI: 0
  m_StitchLightmapSeams: 0
  m_SelectedEditorRenderState: 3
  m_MinimumChartSize: 4
  m_AutoUVMaxDistance: 0.5
  m_AutoUVMaxAngle: 89
  m_LightmapParameters: {fileID: 0}
  m_SortingLayerID: 0
  m_SortingLayer: 0
  m_SortingOrder: 0
--- !u!33 &1393954224
MeshFilter:
  m_ObjectHideFlags: 0
  m_PrefabParentObject: {fileID: 33745170564177264, guid: 85b3b41ac9216ec4c8b5c4e84dc09f04,
    type: 2}
  m_PrefabInternal: {fileID: 0}
  m_GameObject: {fileID: 1393954220}
  m_Mesh: {fileID: 10208, guid: 0000000000000000e000000000000000, type: 0}
--- !u!114 &1393954225
MonoBehaviour:
  m_ObjectHideFlags: 0
  m_PrefabParentObject: {fileID: 114309835187532944, guid: 85b3b41ac9216ec4c8b5c4e84dc09f04,
    type: 2}
  m_PrefabInternal: {fileID: 0}
  m_GameObject: {fileID: 1393954220}
  m_Enabled: 1
  m_EditorHideFlags: 0
  m_Script: {fileID: 11500000, guid: 05d31853b75195347a34c5ee58c21748, type: 3}
  m_Name: 
  m_EditorClassIdentifier: 
  damageManage: {fileID: 0}
  HitFX: {fileID: 100000, guid: 8936dabf3d5e4c647809b1a267d5e14d, type: 2}
  DamageMult: 1
--- !u!1 &1434623625
GameObject:
  m_ObjectHideFlags: 0
  m_PrefabParentObject: {fileID: 1344206673359736, guid: 85b3b41ac9216ec4c8b5c4e84dc09f04,
    type: 2}
  m_PrefabInternal: {fileID: 0}
  serializedVersion: 5
  m_Component:
  - component: {fileID: 1434623626}
  - component: {fileID: 1434623627}
  m_Layer: 0
  m_Name: HUD
  m_TagString: Untagged
  m_Icon: {fileID: 0}
  m_NavMeshLayer: 0
  m_StaticEditorFlags: 0
  m_IsActive: 1
--- !u!4 &1434623626
Transform:
  m_ObjectHideFlags: 0
  m_PrefabParentObject: {fileID: 4759988307535270, guid: 85b3b41ac9216ec4c8b5c4e84dc09f04,
    type: 2}
  m_PrefabInternal: {fileID: 0}
  m_GameObject: {fileID: 1434623625}
  m_LocalRotation: {x: 0, y: 0, z: 0, w: 1}
  m_LocalPosition: {x: 0, y: 0, z: 0}
  m_LocalScale: {x: 1, y: 1, z: 1}
  m_Children: []
  m_Father: {fileID: 497567106}
  m_RootOrder: 0
  m_LocalEulerAnglesHint: {x: 0, y: 0, z: 0}
--- !u!114 &1434623627
MonoBehaviour:
  m_ObjectHideFlags: 0
  m_PrefabParentObject: {fileID: 114714094898164946, guid: 85b3b41ac9216ec4c8b5c4e84dc09f04,
    type: 2}
  m_PrefabInternal: {fileID: 0}
  m_GameObject: {fileID: 1434623625}
  m_Enabled: 1
  m_EditorHideFlags: 0
  m_Script: {fileID: 11500000, guid: 2b32d02f64cb5b341b792e5bc60b4d5c, type: 3}
  m_Name: 
  m_EditorClassIdentifier: 
  character: {fileID: 0}
  Bg: {fileID: 2800000, guid: 40404d8f05d58dc41b845dedcb82acdb, type: 3}
  BarHealth: {fileID: 2800000, guid: 4f11c0a4f1fb15c4fbe79e480280de5f, type: 3}
--- !u!1001 &1528521603
Prefab:
  m_ObjectHideFlags: 0
  serializedVersion: 2
  m_Modification:
    m_TransformParent: {fileID: 0}
    m_Modifications:
    - target: {fileID: 4712278678969470, guid: 175b455f3f677ab42aefd6e95bc85fbb, type: 2}
      propertyPath: m_LocalPosition.x
      value: 10.33
      objectReference: {fileID: 0}
    - target: {fileID: 4712278678969470, guid: 175b455f3f677ab42aefd6e95bc85fbb, type: 2}
      propertyPath: m_LocalPosition.y
      value: 28.27
      objectReference: {fileID: 0}
    - target: {fileID: 4712278678969470, guid: 175b455f3f677ab42aefd6e95bc85fbb, type: 2}
      propertyPath: m_LocalPosition.z
      value: 0
      objectReference: {fileID: 0}
    - target: {fileID: 4712278678969470, guid: 175b455f3f677ab42aefd6e95bc85fbb, type: 2}
      propertyPath: m_LocalRotation.x
      value: 0
      objectReference: {fileID: 0}
    - target: {fileID: 4712278678969470, guid: 175b455f3f677ab42aefd6e95bc85fbb, type: 2}
      propertyPath: m_LocalRotation.y
      value: 0
      objectReference: {fileID: 0}
    - target: {fileID: 4712278678969470, guid: 175b455f3f677ab42aefd6e95bc85fbb, type: 2}
      propertyPath: m_LocalRotation.z
      value: 0
      objectReference: {fileID: 0}
    - target: {fileID: 4712278678969470, guid: 175b455f3f677ab42aefd6e95bc85fbb, type: 2}
      propertyPath: m_LocalRotation.w
      value: 1
      objectReference: {fileID: 0}
    - target: {fileID: 4712278678969470, guid: 175b455f3f677ab42aefd6e95bc85fbb, type: 2}
      propertyPath: m_RootOrder
      value: 2
      objectReference: {fileID: 0}
    m_RemovedComponents: []
  m_ParentPrefab: {fileID: 100100000, guid: 175b455f3f677ab42aefd6e95bc85fbb, type: 2}
  m_IsPrefabParent: 0
--- !u!1001 &1551096063
Prefab:
  m_ObjectHideFlags: 0
  serializedVersion: 2
  m_Modification:
    m_TransformParent: {fileID: 1690721076}
    m_Modifications:
    - target: {fileID: 4562906448311554, guid: f6a2791058878934ea5a9c1a0969d41a, type: 2}
      propertyPath: m_LocalPosition.x
      value: 0
      objectReference: {fileID: 0}
    - target: {fileID: 4562906448311554, guid: f6a2791058878934ea5a9c1a0969d41a, type: 2}
      propertyPath: m_LocalPosition.y
      value: 0
      objectReference: {fileID: 0}
    - target: {fileID: 4562906448311554, guid: f6a2791058878934ea5a9c1a0969d41a, type: 2}
      propertyPath: m_LocalPosition.z
      value: 0
      objectReference: {fileID: 0}
    - target: {fileID: 4562906448311554, guid: f6a2791058878934ea5a9c1a0969d41a, type: 2}
      propertyPath: m_LocalRotation.x
      value: 0
      objectReference: {fileID: 0}
    - target: {fileID: 4562906448311554, guid: f6a2791058878934ea5a9c1a0969d41a, type: 2}
      propertyPath: m_LocalRotation.y
      value: 0
      objectReference: {fileID: 0}
    - target: {fileID: 4562906448311554, guid: f6a2791058878934ea5a9c1a0969d41a, type: 2}
      propertyPath: m_LocalRotation.z
      value: 0
      objectReference: {fileID: 0}
    - target: {fileID: 4562906448311554, guid: f6a2791058878934ea5a9c1a0969d41a, type: 2}
      propertyPath: m_LocalRotation.w
      value: 1
      objectReference: {fileID: 0}
    - target: {fileID: 4562906448311554, guid: f6a2791058878934ea5a9c1a0969d41a, type: 2}
      propertyPath: m_RootOrder
      value: 0
      objectReference: {fileID: 0}
    m_RemovedComponents: []
  m_ParentPrefab: {fileID: 100100000, guid: f6a2791058878934ea5a9c1a0969d41a, type: 2}
  m_IsPrefabParent: 0
--- !u!4 &1551096064 stripped
Transform:
  m_PrefabParentObject: {fileID: 4562906448311554, guid: f6a2791058878934ea5a9c1a0969d41a,
    type: 2}
  m_PrefabInternal: {fileID: 1551096063}
--- !u!1001 &1622922528
Prefab:
  m_ObjectHideFlags: 0
  serializedVersion: 2
  m_Modification:
    m_TransformParent: {fileID: 0}
    m_Modifications:
    - target: {fileID: 4814802871527894, guid: d4504e2312b954940ae5bfd018f7059c, type: 2}
      propertyPath: m_LocalPosition.x
      value: 2.305
      objectReference: {fileID: 0}
    - target: {fileID: 4814802871527894, guid: d4504e2312b954940ae5bfd018f7059c, type: 2}
      propertyPath: m_LocalPosition.y
      value: 4.6
      objectReference: {fileID: 0}
    - target: {fileID: 4814802871527894, guid: d4504e2312b954940ae5bfd018f7059c, type: 2}
      propertyPath: m_LocalPosition.z
      value: 1.377
      objectReference: {fileID: 0}
    - target: {fileID: 4814802871527894, guid: d4504e2312b954940ae5bfd018f7059c, type: 2}
      propertyPath: m_LocalRotation.x
      value: 0
      objectReference: {fileID: 0}
    - target: {fileID: 4814802871527894, guid: d4504e2312b954940ae5bfd018f7059c, type: 2}
      propertyPath: m_LocalRotation.y
      value: 0
      objectReference: {fileID: 0}
    - target: {fileID: 4814802871527894, guid: d4504e2312b954940ae5bfd018f7059c, type: 2}
      propertyPath: m_LocalRotation.z
      value: 0
      objectReference: {fileID: 0}
    - target: {fileID: 4814802871527894, guid: d4504e2312b954940ae5bfd018f7059c, type: 2}
      propertyPath: m_LocalRotation.w
      value: 1
      objectReference: {fileID: 0}
    - target: {fileID: 4814802871527894, guid: d4504e2312b954940ae5bfd018f7059c, type: 2}
      propertyPath: m_RootOrder
      value: 0
      objectReference: {fileID: 0}
    - target: {fileID: 1602976566578688, guid: d4504e2312b954940ae5bfd018f7059c, type: 2}
      propertyPath: m_IsActive
      value: 0
      objectReference: {fileID: 0}
    - target: {fileID: 1388431657991052, guid: d4504e2312b954940ae5bfd018f7059c, type: 2}
      propertyPath: m_IsActive
      value: 0
      objectReference: {fileID: 0}
    - target: {fileID: 1643909101327698, guid: d4504e2312b954940ae5bfd018f7059c, type: 2}
      propertyPath: m_IsActive
      value: 0
      objectReference: {fileID: 0}
    - target: {fileID: 1715895612571906, guid: d4504e2312b954940ae5bfd018f7059c, type: 2}
      propertyPath: m_IsActive
      value: 0
      objectReference: {fileID: 0}
    - target: {fileID: 1823747603931874, guid: d4504e2312b954940ae5bfd018f7059c, type: 2}
      propertyPath: m_IsActive
      value: 0
      objectReference: {fileID: 0}
    - target: {fileID: 1401983254226288, guid: d4504e2312b954940ae5bfd018f7059c, type: 2}
      propertyPath: m_IsActive
      value: 0
      objectReference: {fileID: 0}
    - target: {fileID: 1206548603479114, guid: d4504e2312b954940ae5bfd018f7059c, type: 2}
      propertyPath: m_IsActive
      value: 0
      objectReference: {fileID: 0}
    - target: {fileID: 1804755775869702, guid: d4504e2312b954940ae5bfd018f7059c, type: 2}
      propertyPath: m_IsActive
      value: 0
      objectReference: {fileID: 0}
    - target: {fileID: 1751272626891198, guid: d4504e2312b954940ae5bfd018f7059c, type: 2}
      propertyPath: m_IsActive
      value: 0
      objectReference: {fileID: 0}
    - target: {fileID: 1783771092461370, guid: d4504e2312b954940ae5bfd018f7059c, type: 2}
      propertyPath: m_IsActive
      value: 0
      objectReference: {fileID: 0}
    - target: {fileID: 1265085605965250, guid: d4504e2312b954940ae5bfd018f7059c, type: 2}
      propertyPath: m_IsActive
      value: 0
      objectReference: {fileID: 0}
    - target: {fileID: 1459327844492920, guid: d4504e2312b954940ae5bfd018f7059c, type: 2}
      propertyPath: m_IsActive
      value: 0
      objectReference: {fileID: 0}
    - target: {fileID: 1538982370801012, guid: d4504e2312b954940ae5bfd018f7059c, type: 2}
      propertyPath: m_IsActive
      value: 0
      objectReference: {fileID: 0}
    - target: {fileID: 1501804074991946, guid: d4504e2312b954940ae5bfd018f7059c, type: 2}
      propertyPath: m_IsActive
      value: 0
      objectReference: {fileID: 0}
    - target: {fileID: 1279595750027570, guid: d4504e2312b954940ae5bfd018f7059c, type: 2}
      propertyPath: m_IsActive
      value: 0
      objectReference: {fileID: 0}
    - target: {fileID: 1656147207182222, guid: d4504e2312b954940ae5bfd018f7059c, type: 2}
      propertyPath: m_IsActive
      value: 0
      objectReference: {fileID: 0}
    - target: {fileID: 1816975868432080, guid: d4504e2312b954940ae5bfd018f7059c, type: 2}
      propertyPath: m_IsActive
      value: 0
      objectReference: {fileID: 0}
    - target: {fileID: 1658911802267374, guid: d4504e2312b954940ae5bfd018f7059c, type: 2}
      propertyPath: m_IsActive
      value: 0
      objectReference: {fileID: 0}
    - target: {fileID: 1985495977553494, guid: d4504e2312b954940ae5bfd018f7059c, type: 2}
      propertyPath: m_IsActive
      value: 0
      objectReference: {fileID: 0}
    - target: {fileID: 1246729329622550, guid: d4504e2312b954940ae5bfd018f7059c, type: 2}
      propertyPath: m_IsActive
      value: 0
      objectReference: {fileID: 0}
    - target: {fileID: 1748028651022038, guid: d4504e2312b954940ae5bfd018f7059c, type: 2}
      propertyPath: m_IsActive
      value: 0
      objectReference: {fileID: 0}
    - target: {fileID: 1106344138617524, guid: d4504e2312b954940ae5bfd018f7059c, type: 2}
      propertyPath: m_IsActive
      value: 0
      objectReference: {fileID: 0}
    m_RemovedComponents: []
  m_ParentPrefab: {fileID: 100100000, guid: d4504e2312b954940ae5bfd018f7059c, type: 2}
  m_IsPrefabParent: 0
--- !u!114 &1640573644 stripped
MonoBehaviour:
  m_PrefabParentObject: {fileID: 114975299877269136, guid: c3674c76e02da99469653feecc1da439,
    type: 2}
  m_PrefabInternal: {fileID: 762287557}
  m_Script: {fileID: 708705254, guid: f70555f144d8491a825f0804e09c671c, type: 3}
--- !u!1 &1690721075
GameObject:
  m_ObjectHideFlags: 0
  m_PrefabParentObject: {fileID: 1488855775390786, guid: 85b3b41ac9216ec4c8b5c4e84dc09f04,
    type: 2}
  m_PrefabInternal: {fileID: 0}
  serializedVersion: 5
  m_Component:
  - component: {fileID: 1690721076}
  m_Layer: 0
  m_Name: WeaponPosition
  m_TagString: Untagged
  m_Icon: {fileID: 0}
  m_NavMeshLayer: 0
  m_StaticEditorFlags: 0
  m_IsActive: 1
--- !u!4 &1690721076
Transform:
  m_ObjectHideFlags: 0
  m_PrefabParentObject: {fileID: 4384526360404778, guid: 85b3b41ac9216ec4c8b5c4e84dc09f04,
    type: 2}
  m_PrefabInternal: {fileID: 0}
  m_GameObject: {fileID: 1690721075}
  m_LocalRotation: {x: 0.7071068, y: 0, z: 0, w: 0.7071068}
  m_LocalPosition: {x: 0.204, y: 0.129, z: 0.50899994}
  m_LocalScale: {x: 1, y: 1, z: 1}
  m_Children:
  - {fileID: 1551096064}
  m_Father: {fileID: 497567106}
  m_RootOrder: 2
  m_LocalEulerAnglesHint: {x: 90, y: 0, z: 0}
--- !u!1 &1761332393
GameObject:
  m_ObjectHideFlags: 0
  m_PrefabParentObject: {fileID: 0}
  m_PrefabInternal: {fileID: 0}
  serializedVersion: 5
  m_Component:
  - component: {fileID: 1761332396}
  - component: {fileID: 1761332395}
  - component: {fileID: 1761332394}
  m_Layer: 0
  m_Name: EventSystem
  m_TagString: Untagged
  m_Icon: {fileID: 0}
  m_NavMeshLayer: 0
  m_StaticEditorFlags: 0
  m_IsActive: 1
--- !u!114 &1761332394
MonoBehaviour:
  m_ObjectHideFlags: 0
  m_PrefabParentObject: {fileID: 0}
  m_PrefabInternal: {fileID: 0}
  m_GameObject: {fileID: 1761332393}
  m_Enabled: 1
  m_EditorHideFlags: 0
  m_Script: {fileID: 1077351063, guid: f70555f144d8491a825f0804e09c671c, type: 3}
  m_Name: 
  m_EditorClassIdentifier: 
  m_HorizontalAxis: Horizontal
  m_VerticalAxis: Vertical
  m_SubmitButton: Submit
  m_CancelButton: Cancel
  m_InputActionsPerSecond: 10
  m_RepeatDelay: 0.5
  m_ForceModuleActive: 0
--- !u!114 &1761332395
MonoBehaviour:
  m_ObjectHideFlags: 0
  m_PrefabParentObject: {fileID: 0}
  m_PrefabInternal: {fileID: 0}
  m_GameObject: {fileID: 1761332393}
  m_Enabled: 1
  m_EditorHideFlags: 0
  m_Script: {fileID: -619905303, guid: f70555f144d8491a825f0804e09c671c, type: 3}
  m_Name: 
  m_EditorClassIdentifier: 
  m_FirstSelected: {fileID: 0}
  m_sendNavigationEvents: 1
  m_DragThreshold: 10
--- !u!4 &1761332396
Transform:
  m_ObjectHideFlags: 0
  m_PrefabParentObject: {fileID: 0}
  m_PrefabInternal: {fileID: 0}
  m_GameObject: {fileID: 1761332393}
  m_LocalRotation: {x: -0, y: -0, z: -0, w: 1}
  m_LocalPosition: {x: -512, y: -384, z: 0}
  m_LocalScale: {x: 1, y: 1, z: 1}
  m_Children: []
  m_Father: {fileID: 1977531042}
  m_RootOrder: 1
  m_LocalEulerAnglesHint: {x: 0, y: 0, z: 0}
--- !u!1 &1977531038
GameObject:
  m_ObjectHideFlags: 0
  m_PrefabParentObject: {fileID: 0}
  m_PrefabInternal: {fileID: 0}
  serializedVersion: 5
  m_Component:
  - component: {fileID: 1977531042}
  - component: {fileID: 1977531041}
  - component: {fileID: 1977531040}
  - component: {fileID: 1977531039}
  m_Layer: 5
  m_Name: Canvas
  m_TagString: Untagged
  m_Icon: {fileID: 0}
  m_NavMeshLayer: 0
  m_StaticEditorFlags: 0
  m_IsActive: 1
--- !u!114 &1977531039
MonoBehaviour:
  m_ObjectHideFlags: 0
  m_PrefabParentObject: {fileID: 0}
  m_PrefabInternal: {fileID: 0}
  m_GameObject: {fileID: 1977531038}
  m_Enabled: 1
  m_EditorHideFlags: 0
  m_Script: {fileID: 1301386320, guid: f70555f144d8491a825f0804e09c671c, type: 3}
  m_Name: 
  m_EditorClassIdentifier: 
  m_IgnoreReversedGraphics: 1
  m_BlockingObjects: 0
  m_BlockingMask:
    serializedVersion: 2
    m_Bits: 4294967295
--- !u!114 &1977531040
MonoBehaviour:
  m_ObjectHideFlags: 0
  m_PrefabParentObject: {fileID: 0}
  m_PrefabInternal: {fileID: 0}
  m_GameObject: {fileID: 1977531038}
  m_Enabled: 1
  m_EditorHideFlags: 0
  m_Script: {fileID: 1980459831, guid: f70555f144d8491a825f0804e09c671c, type: 3}
  m_Name: 
  m_EditorClassIdentifier: 
  m_UiScaleMode: 0
  m_ReferencePixelsPerUnit: 100
  m_ScaleFactor: 1
  m_ReferenceResolution: {x: 800, y: 600}
  m_ScreenMatchMode: 0
  m_MatchWidthOrHeight: 0
  m_PhysicalUnit: 3
  m_FallbackScreenDPI: 96
  m_DefaultSpriteDPI: 96
  m_DynamicPixelsPerUnit: 1
--- !u!223 &1977531041
Canvas:
  m_ObjectHideFlags: 0
  m_PrefabParentObject: {fileID: 0}
  m_PrefabInternal: {fileID: 0}
  m_GameObject: {fileID: 1977531038}
  m_Enabled: 1
  serializedVersion: 3
  m_RenderMode: 0
  m_Camera: {fileID: 0}
  m_PlaneDistance: 100
  m_PixelPerfect: 0
  m_ReceivesEvents: 1
  m_OverrideSorting: 0
  m_OverridePixelPerfect: 0
  m_SortingBucketNormalizedSize: 0
  m_AdditionalShaderChannelsFlag: 0
  m_SortingLayerID: 0
  m_SortingOrder: 0
  m_TargetDisplay: 0
--- !u!224 &1977531042
RectTransform:
  m_ObjectHideFlags: 0
  m_PrefabParentObject: {fileID: 0}
  m_PrefabInternal: {fileID: 0}
  m_GameObject: {fileID: 1977531038}
  m_LocalRotation: {x: 0, y: 0, z: 0, w: 1}
  m_LocalPosition: {x: 0, y: 0, z: 0}
  m_LocalScale: {x: 0, y: 0, z: 0}
  m_Children:
  - {fileID: 588471141}
  - {fileID: 1761332396}
  m_Father: {fileID: 0}
  m_RootOrder: 4
  m_LocalEulerAnglesHint: {x: 0, y: 0, z: 0}
  m_AnchorMin: {x: 0, y: 0}
  m_AnchorMax: {x: 0, y: 0}
  m_AnchoredPosition: {x: 0, y: 0}
  m_SizeDelta: {x: 0, y: 0}
  m_Pivot: {x: 0, y: 0}
